My first markdown document
…
## Parsed with column specification:
## cols(
##   student_name = col_character(),
##   name = col_character(),
##   location = col_character(),
##   cuisine = col_character(),
##   fav_dish = col_character(),
##   cost_per_person = col_character(),
##   yearly_visits = col_integer(),
##   last_visit = col_character()
## )

class

## # A tibble: 151 x 8
##    student_name name       location   cuisine fav_dish     cost_per_person
##    <chr>        <chr>      <chr>      <chr>   <chr>        <chr>          
##  1 Megan        Moes       Richmond,~ Fast F~ Moo Moo Mr ~ 4.50           
##  2 Megan        Ginger Th~ Richmond,~ Thai    Pad See Ew   12.00          
##  3 Megan        Lucianos   Mars, PA   Italian Pasta Diabl~ 8.25           
##  4 Megan        Pit and t~ Richmond,~ Other   Chipotle Qu~ 7.00           
##  5 Megan        Chipotle   Richmond,~ Fast F~ Sofritas Bo~ 7.00           
##  6 Megan        Hello Bis~ Pittsburg~ Other   MTO salad    9.50           
##  7 Ivy          peter_cha~ Richmond,~ Chinese Egg roll     20.00          
##  8 Ivy          full_kee_~ Richmond,~ Chinese Low mein     20.00          
##  9 Ivy          panda_exp~ Richmond,~ Chinese kong pao ch~ 10.00          
## 10 Ivy          sushi_king Richmond,~ Japane~ Fried Rice   25.00          
## # ... with 141 more rows, and 2 more variables: yearly_visits <int>,
## #   last_visit <chr>
…
